{
  "items": [
    {
      "item_id": "item_0120",
      "meta": "{\"price\": 117.97, \"margin\": 0.521, \"segment\": \"power_users\", \"category\": \"Outdoors\"}",
      "source_event_id": null,
      "ts": "2025-10-30T23:11:32Z",
      "type": 0,
      "user_id": "user_0041",
      "value": 1
    },
    {
      "item_id": "item_0219",
      "meta": "{\"price\": 217.27, \"margin\": 0.377, \"segment\": \"power_users\", \"category\": \"Electronics\"}",
      "source_event_id": null,
      "ts": "2025-10-30T21:43:30Z",
      "type": 0,
      "user_id": "user_0026",
      "value": 1
    },
    {
      "item_id": "item_0107",
      "meta": "{\"price\": 139.47, \"margin\": 0.278, \"segment\": \"weekend_adventurers\", \"category\": \"Fitness\"}",
      "source_event_id": null,
      "ts": "2025-10-30T21:20:22Z",
      "type": 1,
      "user_id": "user_0110",
      "value": 1
    },
    {
      "item_id": "item_0251",
      "meta": "{\"price\": 218.37, \"margin\": 0.197, \"segment\": \"trend_seekers\", \"category\": \"Electronics\"}",
      "source_event_id": null,
      "ts": "2025-10-30T21:05:22Z",
      "type": 1,
      "user_id": "user_0104",
      "value": 1
    },
    {
      "item_id": "item_0175",
      "meta": "{\"price\": 207.52, \"margin\": 0.116, \"segment\": \"new_users\", \"category\": \"Home\"}",
      "source_event_id": null,
      "ts": "2025-10-30T20:59:31Z",
      "type": 2,
      "user_id": "user_0012",
      "value": 1.19
    }
  ],
  "total": 5200,
  "limit": 5,
  "offset": 0,
  "has_more": true,
  "next_offset": 5
}
